{
	"host" : {
		"hostName" : "samimPC",
		"domainName" : "samim.net",
		"dnsServers" : "10.1.1.244, 8.8.8.8",
		"defaultGateway" : "172.16.0.1"
	},
	"os" : {
		"vendor" : "Microsoft",
		"name" : "Windows",
		"version" : "10 build 14393",
		"architecture" : "x5s"
	},
	"cpu" :  {
		"model": "Intel(R) Core(TM) i7-2600 CPU @ 3.40GHz",
		"architecture" : "x64",
		"physicalCore" : "4",
		"logicalCore" : "8",
		"uptime" : "31546000060",
		"load" : "11.8",
		"cores" : [
			{"load" : "50"},
			{"load" : "70"},
			{"load" : "4.8"}
			]
	},
	"ram" : {
		"capacity" : "8589934592",
		"used" : "3758096384",
		"free" : "5368709120",
		"swapSize" : "2147483648",
		"swapUsed" : "1073741824",
		"swapFree" : "1073741824"
	},
	"storages" : [
		{
			"capacity" : "70368744177664" ,
			"used" : "21990232555520" ,
			"free" : "48378511622144" ,
			"fileSystem" : "EXT4"
		},
		{
			"capacity" : "214748364800" ,
			"used" : "107374182400" ,
			"free" : "107374182400" ,
			"fileSystem" : "NTFS"
		}
	],
	"nics" :	[
		{
			"name" : "eth2 (D-Link DGE-528T Gigabit Ethernet Adapter)" ,
			"macAddress" : "c8:be:19:49:e0:a0" ,
			"speed" : "1000000000",
			"IPv4" : "172.16.230.1" ,
			"mask" : "255.255.0.0",
			"gateway" : "172.16.0.1",
			"in" : "20000000",
			"out" : "60000000"
		},
		{
			"name" : "net2 (Microsoft ISATAP Adapter #2)" ,
			"macAddress" : "00:00:00:00:00:00:00:e0" ,
			"speed" : "10000000000",
			"IPv4" : "192.16.230.1" ,
			"mask" : "255.255.255.0",
			"gateway" : "192.16.0.1",
			"in" : "3000000000",
			"out" : "200000000"
		}
	],
	"functions" : [
		{
		"name" : "Poster Extractor",
		"resources" : "4"
		},
		{
		"name" : "Cryptography",
		"resources" : "2"
		}
	]
}